<?xml version="1.0" encoding="utf-8"?>
<!-- Generator: Adobe Illustrator 18.1.1, SVG Export Plug-In . SVG Version: 6.00 Build 0)  -->
<svg version="1.1" id="Vrstva_1" xmlns="http://www.w3.org/2000/svg" xmlns:xlink="http://www.w3.org/1999/xlink" x="0px" y="0px"
	 viewBox="0 0 147.4 25.5" enable-background="new 0 0 147.4 25.5" xml:space="preserve">
<g>
	<g>
		<path fill="#FFFFFF" d="M52.4,4.2H52l-0.3-0.4h-0.1v0.4h-0.3v-1h0.4c0.1,0,0.1,0,0.2,0c0,0,0.1,0,0.1,0c0,0,0.1,0.1,0.1,0.1
			c0,0,0,0.1,0,0.1c0,0.1,0,0.1-0.1,0.2c0,0-0.1,0.1-0.2,0.1L52.4,4.2z M51.9,3.5C51.9,3.5,51.9,3.4,51.9,3.5c0-0.1,0-0.1-0.1-0.1
			c0,0,0,0-0.1,0c0,0-0.1,0-0.1,0h-0.1v0.3h0.1c0,0,0.1,0,0.1,0c0,0,0.1,0,0.1,0C51.9,3.6,51.9,3.6,51.9,3.5
			C51.9,3.5,51.9,3.5,51.9,3.5"/>
		<path fill="#FFFFFF" d="M52.8,3.7c0,0.3-0.1,0.5-0.3,0.7c-0.2,0.2-0.4,0.3-0.7,0.3S51.2,4.6,51,4.4c-0.2-0.2-0.3-0.4-0.3-0.7
			c0-0.3,0.1-0.5,0.3-0.7c0.2-0.2,0.4-0.3,0.7-0.3s0.5,0.1,0.7,0.3C52.7,3.2,52.8,3.4,52.8,3.7 M52.6,3.7c0-0.2-0.1-0.4-0.2-0.6
			C52.2,3,52,2.9,51.8,2.9c-0.2,0-0.4,0.1-0.6,0.2C51,3.3,51,3.5,51,3.7c0,0.2,0.1,0.4,0.2,0.6c0.2,0.2,0.3,0.2,0.6,0.2
			c0.2,0,0.4-0.1,0.6-0.2C52.5,4.1,52.6,3.9,52.6,3.7"/>
		<g>
			<path fill="#FFFFFF" d="M36,10.6c-1.2,0-1.5,0.4-1.5,1.6h3.1v-0.1C37.6,10.7,37,10.6,36,10.6z"/>
			<path fill="#FFFFFF" d="M8.3,13.3c0,3.3,0.8,4.6,4.4,4.6c1.3,0,2.4-0.1,3.2-0.5c0.7-0.4,1.2-1.2,1.2-2.5h-2.8
				c0,1-0.7,1.1-1.6,1.1c-1.3,0-1.5-0.5-1.5-2.1v-0.1H17v-0.4c0-3.7-1-4.6-4.3-4.6C9.1,8.8,8.3,9.9,8.3,13.3z M12.6,10.7
				c1,0,1.6,0.1,1.6,1.5v0.1h-3.1C11.2,11.1,11.4,10.7,12.6,10.7z"/>
			<path fill="#FFFFFF" d="M23.3,16.1c-0.7,0-1.5,0-1.5-1h-2.8c0,2,1,2.6,2.7,2.8c0.5,0,1.1,0,1.7,0c2.4,0,4.4-0.4,4.4-3
				c0-2.5-1.3-2.6-4.4-2.7c-1.5,0-1.6-0.4-1.6-0.9c0-0.6,0.1-0.8,1.6-0.8c0.6,0,1.1,0.1,1.3,0.8h2.7v-0.4c0-2.1-2.2-2.2-3.9-2.2
				c-2.5,0-4.4,0.1-4.4,2.9c0,1.8,0.6,2.6,4.4,2.6c0.3,0,0.9,0,1.2,0.1c0.3,0.1,0.4,0.4,0.4,0.8C24.9,16,24.6,16.1,23.3,16.1z"/>
			<path fill="#FFFFFF" d="M52.6,6.9c-1.1-1.9-3.3-3.2-5.8-3.2H9.9C7.3,3.7,5.2,5,4.1,6.9c-1,1.7-1.2,4.5-1.2,6.4
				c0,1.9,0.2,4.7,1.2,6.4c1.1,1.9,3.3,3.2,5.8,3.2h36.9c2.5,0,4.7-1.3,5.8-3.2c1-1.7,1.2-4.5,1.2-6.4C53.9,11.4,53.6,8.6,52.6,6.9z
				 M29.4,21.2h-19c-1.5,0-3.2-0.7-4.1-1.7c-1.4-1.5-1.7-3.9-1.7-6.2c0-2.3,0.3-4.7,1.7-6.2c0.9-1,2.6-1.7,4.1-1.7h19V21.2z
				 M40.3,13.7h-5.9v0.1c0,1.6,0.3,2.1,1.6,2.1c0.9,0,1.6-0.1,1.6-1.1h2.7c0,1.3-0.5,2-1.2,2.4c-0.8,0.4-1.8,0.5-3.1,0.5
				c-3.5,0-4.3-1.2-4.3-4.5c0-3.4,0.8-4.5,4.3-4.5c3.3,0,4.3,0.9,4.3,4.5V13.7z M49.1,10.8H47v7h-2.8v-7h-2.1v-2h7V10.8z"/>
		</g>
	</g>
	<g>
		<polygon fill="#FFFFFF" points="60.6,11.6 62.6,11.6 62.6,12 61.1,12 61.1,13.1 62.5,13.1 62.5,13.5 61.1,13.5 61.1,14.6 
			62.7,14.6 62.7,15 60.6,15 		"/>
		<polygon fill="#FFFFFF" points="64.4,11.6 65.1,11.6 66.7,14.5 66.7,14 66.7,11.6 67.2,11.6 67.2,15 66.5,15 64.9,12.2 64.9,12.6 
			64.9,15 64.4,15 		"/>
		<path fill="#FFFFFF" d="M68.8,15.5c0.6-0.3,0.7-0.7,0.7-1.3v-2.7H70v2.7c0,0.7-0.1,1.3-1,1.7L68.8,15.5z"/>
		<path fill="#FFFFFF" d="M74.5,13.3c0-0.8-0.4-1.3-1.2-1.3c-0.8,0-1.2,0.6-1.2,1.3c0,0.7,0.4,1.4,1.2,1.4
			C74.1,14.6,74.5,14.1,74.5,13.3 M71.5,13.3c0-1.1,0.7-1.7,1.8-1.7c1.1,0,1.7,0.8,1.7,1.8c0,1.1-0.7,1.8-1.8,1.8
			C72.1,15.1,71.5,14.4,71.5,13.3"/>
		<polygon fill="#FFFFFF" points="77,13.8 75.8,11.6 76.4,11.6 77.3,13.3 78.2,11.6 78.7,11.6 77.5,13.8 77.5,15 77,15 		"/>
		<path fill="#FFFFFF" d="M81.4,14.8l0.2-0.4c0.3,0.1,0.5,0.2,0.8,0.2c0.4,0,0.8-0.1,0.8-0.5c0-0.8-1.7-0.6-1.7-1.7
			c0-0.6,0.5-0.9,1.1-0.9c0.4,0,0.7,0.1,0.9,0.2l-0.1,0.4C83.1,12,82.9,12,82.6,12c-0.4,0-0.6,0.1-0.6,0.4c0,0.7,1.7,0.6,1.7,1.7
			c0,0.7-0.6,1-1.3,1C81.9,15.1,81.6,15,81.4,14.8"/>
		<path fill="#FFFFFF" d="M86.9,13.4l-0.5-1.5l-0.5,1.5H86.9z M86.1,11.6h0.7L88,15h-0.5L87,13.8h-1.3L85.3,15h-0.5L86.1,11.6z"/>
		<polygon fill="#FFFFFF" points="89.3,11.6 91.4,11.6 91.4,12 89.8,12 89.8,13.2 91.3,13.2 91.3,13.6 89.8,13.6 89.8,15 89.3,15 		
			"/>
		<polygon fill="#FFFFFF" points="92.8,11.6 94.8,11.6 94.8,12 93.3,12 93.3,13.1 94.7,13.1 94.7,13.5 93.3,13.5 93.3,14.6 
			94.9,14.6 94.9,15 92.8,15 		"/>
		<path fill="#FFFFFF" d="M97.4,13.3c0.5,0,0.8-0.2,0.8-0.7c0-0.5-0.2-0.6-0.7-0.6H97v1.3H97.4z M96.4,11.6h1.2c0.7,0,1.2,0.3,1.2,1
			c0,0.4-0.2,0.7-0.6,0.9l1.1,1.4h-0.7l-0.9-1.3c-0.1,0-0.2,0-0.3,0H97V15h-0.5V11.6z"/>
		<polygon fill="#FFFFFF" points="103,12 101.9,12 101.9,11.6 104.7,11.6 104.7,12 103.5,12 103.5,15 103,15 		"/>
		<polygon fill="#FFFFFF" points="105.8,11.6 107.8,11.6 107.8,12 106.3,12 106.3,13.1 107.7,13.1 107.7,13.5 106.3,13.5 
			106.3,14.6 107.9,14.6 107.9,15 105.8,15 		"/>
		<path fill="#FFFFFF" d="M109,13.3c0-1.1,0.6-1.8,1.8-1.8c0.6,0,0.9,0.1,1,0.2l-0.1,0.4c-0.2-0.1-0.4-0.1-0.9-0.1
			c-0.7,0-1.3,0.4-1.3,1.3c0,0.9,0.6,1.3,1.4,1.3c0.3,0,0.6-0.1,0.8-0.1l0.1,0.4c-0.2,0.1-0.5,0.2-1,0.2
			C109.7,15.1,109,14.4,109,13.3"/>
		<polygon fill="#FFFFFF" points="113.1,11.6 113.6,11.6 113.6,13.1 115.4,13.1 115.4,11.6 115.9,11.6 115.9,15 115.4,15 
			115.4,13.5 113.6,13.5 113.6,15 113.1,15 		"/>
		<polygon fill="#FFFFFF" points="117.5,11.6 118.2,11.6 119.8,14.5 119.8,14 119.8,11.6 120.3,11.6 120.3,15 119.6,15 118,12.2 
			118,12.6 118,15 117.5,15 		"/>
		<path fill="#FFFFFF" d="M124.6,13.3c0-0.8-0.4-1.3-1.2-1.3c-0.8,0-1.2,0.6-1.2,1.3c0,0.7,0.4,1.4,1.2,1.4
			C124.3,14.6,124.6,14.1,124.6,13.3 M121.7,13.3c0-1.1,0.7-1.7,1.8-1.7c1.1,0,1.7,0.8,1.7,1.8c0,1.1-0.7,1.8-1.8,1.8
			C122.3,15.1,121.7,14.4,121.7,13.3"/>
		<polygon fill="#FFFFFF" points="126.6,11.6 127.1,11.6 127.1,14.6 128.5,14.6 128.5,15 126.6,15 		"/>
		<path fill="#FFFFFF" d="M132.2,13.3c0-0.8-0.4-1.3-1.2-1.3c-0.8,0-1.2,0.6-1.2,1.3c0,0.7,0.4,1.4,1.2,1.4
			C131.8,14.6,132.2,14.1,132.2,13.3 M129.2,13.3c0-1.1,0.7-1.7,1.8-1.7c1.1,0,1.7,0.8,1.7,1.8c0,1.1-0.7,1.8-1.8,1.8
			C129.8,15.1,129.2,14.4,129.2,13.3"/>
		<path fill="#FFFFFF" d="M133.9,13.3c0-1.1,0.6-1.8,1.8-1.8c0.6,0,0.8,0.1,1,0.2l-0.1,0.4c-0.2-0.1-0.4-0.1-0.8-0.1
			c-0.7,0-1.3,0.4-1.3,1.3c0,0.9,0.6,1.3,1.3,1.3c0.2,0,0.3,0,0.5,0v-1.2h0.5v1.6c-0.3,0.1-0.6,0.2-1.1,0.2
			C134.5,15.1,133.9,14.4,133.9,13.3"/>
		<polygon fill="#FFFFFF" points="138.9,13.8 137.7,11.6 138.3,11.6 139.1,13.3 140,11.6 140.6,11.6 139.4,13.8 139.4,15 138.9,15 
					"/>
		<g>
			<path fill="#FFFFFF" d="M141.5,11.7h-0.3v-0.1h0.7v0.1h-0.3v0.8h-0.1V11.7z"/>
			<path fill="#FFFFFF" d="M143,12.2c0-0.1,0-0.3,0-0.4h0c0,0.1-0.1,0.2-0.1,0.4l-0.2,0.5h-0.1l-0.2-0.5c0-0.1-0.1-0.3-0.1-0.4h0
				c0,0.1,0,0.3,0,0.4l0,0.4h-0.1l0.1-1h0.2l0.2,0.5c0,0.1,0.1,0.2,0.1,0.3h0c0-0.1,0.1-0.2,0.1-0.3l0.2-0.5h0.2l0.1,1H143L143,12.2
				z"/>
		</g>
	</g>
</g>
</svg>
